<svg xmlns="http://www.w3.org/2000/svg" width="24" height="24" fill="none" viewBox="0 0 24 24">
    <g stroke="#fff" stroke-linecap="round" opacity=".64">
        <path stroke-linejoin="round" stroke-width="2" d="M20 3H4c-1.105 0-2 .895-2 2v10c0 1.105.895 2 2 2h16c1.105 0 2-.895 2-2V5c0-1.105-.895-2-2-2zM8 21h8M12 17v4"/>
        <path stroke-linejoin="round" stroke-width="1.5" d="M16.098 16.034v-1c0-.53-.211-1.039-.586-1.414s-.884-.586-1.414-.586h-4c-.53 0-1.04.21-1.415.586-.375.375-.585.884-.585 1.414v1M12.098 11.034c1.104 0 2-.895 2-2 0-1.104-.896-2-2-2-1.105 0-2 .896-2 2 0 1.105.895 2 2 2z"/>
        <path stroke-width="1.5" d="M2.848 6.284L6.348 6.284M2.848 9.284L6.348 9.284M2.848 12.284L4.348 12.284"/>
    </g>
</svg>
